<?xml version="1.0" encoding="UTF-8" standalone="no"?>
<!-- Created with Inkscape (http://www.inkscape.org/) -->

<svg
   xmlns:dc="http://purl.org/dc/elements/1.1/"
   xmlns:cc="http://creativecommons.org/ns#"
   xmlns:rdf="http://www.w3.org/1999/02/22-rdf-syntax-ns#"
   xmlns:svg="http://www.w3.org/2000/svg"
   xmlns="http://www.w3.org/2000/svg"
   xmlns:sodipodi="http://sodipodi.sourceforge.net/DTD/sodipodi-0.dtd"
   xmlns:inkscape="http://www.inkscape.org/namespaces/inkscape"
   id="svg4886"
   version="1.1"
   inkscape:version="0.48.2 r9819"
   width="358.38306"
   height="296.83594"
   xml:space="preserve"
   sodipodi:docname="LNA_start.svg"><metadata
     id="metadata4892"><rdf:RDF><cc:Work
         rdf:about=""><dc:format>image/svg+xml</dc:format><dc:type
           rdf:resource="http://purl.org/dc/dcmitype/StillImage" /><dc:title></dc:title></cc:Work></rdf:RDF></metadata><defs
     id="defs4890">









</defs><sodipodi:namedview
     pagecolor="#ffffff"
     bordercolor="#666666"
     borderopacity="1"
     objecttolerance="10"
     gridtolerance="10"
     guidetolerance="10"
     inkscape:pageopacity="0"
     inkscape:pageshadow="2"
     inkscape:window-width="1680"
     inkscape:window-height="988"
     id="namedview4888"
     showgrid="false"
     inkscape:zoom="1.7407833"
     inkscape:cx="297.98825"
     inkscape:cy="146.59432"
     inkscape:window-x="1672"
     inkscape:window-y="-8"
     inkscape:window-maximized="1"
     inkscape:current-layer="g4894"
     fit-margin-top="0"
     fit-margin-left="0"
     fit-margin-right="0"
     fit-margin-bottom="0" /><g
     id="g4894"
     inkscape:groupmode="layer"
     inkscape:label="LNA"
     transform="matrix(1.25,0,0,-1.25,-229.12295,287.73437)"><g
   id="g5694"
   transform="matrix(-1.5,0,0,1.5,605.9883,13.721001)"
   style="stroke-width:0.5333333;stroke-miterlimit:4;stroke-dasharray:none"><g
     id="g3251"
     transform="translate(-2.1333334,0)"><path
       inkscape:connector-curvature="0"
       id="path4926"
       style="fill:none;stroke:#000000;stroke-width:0.5333333;stroke-linecap:butt;stroke-linejoin:miter;stroke-miterlimit:4;stroke-opacity:1;stroke-dasharray:none"
       d="m 137.86401,63.285 -2.832,0" /><path
       inkscape:connector-curvature="0"
       id="path4928"
       style="fill:none;stroke:#000000;stroke-width:0.5333333;stroke-linecap:butt;stroke-linejoin:miter;stroke-miterlimit:4;stroke-opacity:1;stroke-dasharray:none"
       d="m 143.65701,57.618 2.832,0" /><path
       inkscape:connector-curvature="0"
       id="path4930"
       style="fill:#000000;fill-opacity:1;fill-rule:evenodd;stroke:none"
       d="m 142.30501,59.551 5.247,-1.93 -5.247,-1.925 c 0.84,1.132 0.833,2.695 0,3.855 z" /><path
       inkscape:connector-curvature="0"
       id="path4932"
       style="fill:none;stroke:#000000;stroke-width:0.5333333;stroke-linecap:round;stroke-linejoin:miter;stroke-miterlimit:4;stroke-opacity:1;stroke-dasharray:none"
       d="m 137.86401,67.535 0,-8.5" /><path
       inkscape:connector-curvature="0"
       id="path4934"
       style="fill:none;stroke:#000000;stroke-width:0.5333333;stroke-linecap:round;stroke-linejoin:miter;stroke-miterlimit:4;stroke-opacity:1;stroke-dasharray:none"
       d="m 140.70001,71.758 0,-16.976" /><path
       inkscape:connector-curvature="0"
       id="path4936"
       style="fill:none;stroke:#000000;stroke-width:0.5333333;stroke-linecap:butt;stroke-linejoin:round;stroke-miterlimit:4;stroke-opacity:1;stroke-dasharray:none"
       d="m 147.90701,71.785 0,-2.835 -7.086,0" /><path
       inkscape:connector-curvature="0"
       id="path4938"
       style="fill:none;stroke:#000000;stroke-width:0.5333333;stroke-linecap:butt;stroke-linejoin:round;stroke-miterlimit:4;stroke-opacity:1;stroke-dasharray:none"
       d="m 140.82101,57.618 7.086,0 0,-2.836" /><path
       inkscape:connector-curvature="0"
       id="path4994"
       style="fill:none;stroke:#000000;stroke-width:0.5333333;stroke-linecap:butt;stroke-linejoin:miter;stroke-miterlimit:4;stroke-opacity:1;stroke-dasharray:none"
       d="m 132.31701,63.285 2.836,0" /><path
       sodipodi:nodetypes="cc"
       inkscape:connector-curvature="0"
       id="path5016"
       style="fill:none;stroke:#000000;stroke-width:0.5333333;stroke-linecap:butt;stroke-linejoin:miter;stroke-miterlimit:4;stroke-opacity:1;stroke-dasharray:none"
       d="m 147.90701,54.782 0,-4.296347" /><path
       inkscape:connector-curvature="0"
       id="path5050"
       style="fill:none;stroke:#000000;stroke-width:0.5333333;stroke-linecap:butt;stroke-linejoin:miter;stroke-miterlimit:4;stroke-opacity:1;stroke-dasharray:none"
       d="m 130.89901,64.7 0,-2.832" /><path
       inkscape:connector-curvature="0"
       id="path5052"
       style="fill:none;stroke:#000000;stroke-width:0.5333333;stroke-linecap:butt;stroke-linejoin:miter;stroke-miterlimit:4;stroke-opacity:1;stroke-dasharray:none"
       d="m 130.89901,63.285 1.418,0" /><path
       sodipodi:nodetypes="cc"
       inkscape:connector-curvature="0"
       id="path5016-1"
       style="fill:none;stroke:#000000;stroke-width:0.5333333;stroke-linecap:butt;stroke-linejoin:miter;stroke-miterlimit:4;stroke-opacity:1;stroke-dasharray:none"
       d="m 147.91135,77.134103 0,-5.719905" /></g></g><g
   id="g7809"
   transform="matrix(-1.5,0,0,1.5,604.44366,40.137597)"
   style="stroke-width:0.5333333;stroke-miterlimit:4;stroke-dasharray:none"><path
     d="m 139.023,100.309 2.832,0"
     style="fill:none;stroke:#000000;stroke-width:0.5333333;stroke-linecap:butt;stroke-linejoin:miter;stroke-miterlimit:4;stroke-opacity:1;stroke-dasharray:none"
     id="path4898"
     inkscape:connector-curvature="0" /><path
     d="m 143.207,102.243 -5.242,-1.926 5.242,-1.926 c -0.836,1.137 -0.832,2.691 0,3.852 z"
     style="fill:#000000;fill-opacity:1;fill-rule:evenodd;stroke:none"
     id="path4900"
     inkscape:connector-curvature="0" /><path
     d="m 134.648,94.641 -2.835,0"
     style="fill:none;stroke:#000000;stroke-width:0.5333333;stroke-linecap:butt;stroke-linejoin:miter;stroke-miterlimit:4;stroke-opacity:1;stroke-dasharray:none"
     id="path4902"
     inkscape:connector-curvature="0" /><path
     d="m 134.648,98.895 0,-8.504"
     style="fill:none;stroke:#000000;stroke-width:0.5333333;stroke-linecap:round;stroke-linejoin:miter;stroke-miterlimit:4;stroke-opacity:1;stroke-dasharray:none"
     id="path4904"
     inkscape:connector-curvature="0" /><path
     d="m 137.484,103.114 0,-16.977"
     style="fill:none;stroke:#000000;stroke-width:0.5333333;stroke-linecap:round;stroke-linejoin:miter;stroke-miterlimit:4;stroke-opacity:1;stroke-dasharray:none"
     id="path4906"
     inkscape:connector-curvature="0" /><path
     d="m 144.691,103.145 0,-2.836 -7.086,0"
     style="fill:none;stroke:#000000;stroke-width:0.5333333;stroke-linecap:butt;stroke-linejoin:round;stroke-miterlimit:4;stroke-opacity:1;stroke-dasharray:none"
     id="path4908"
     inkscape:connector-curvature="0" /><path
     d="m 137.605,88.973 7.086,0 0,-2.836"
     style="fill:none;stroke:#000000;stroke-width:0.5333333;stroke-linecap:butt;stroke-linejoin:round;stroke-miterlimit:4;stroke-opacity:1;stroke-dasharray:none"
     id="path4910"
     inkscape:connector-curvature="0" /><path
     d="m 144.691,103.145 0,7.086"
     style="fill:none;stroke:#000000;stroke-width:0.5333333;stroke-linecap:butt;stroke-linejoin:miter;stroke-miterlimit:4;stroke-opacity:1;stroke-dasharray:none"
     id="path4986"
     inkscape:connector-curvature="0" /><path
     d="m 141.855,110.231 5.672,0"
     style="fill:none;stroke:#000000;stroke-width:0.5333333;stroke-linecap:butt;stroke-linejoin:miter;stroke-miterlimit:4;stroke-opacity:1;stroke-dasharray:none"
     id="path5034"
     inkscape:connector-curvature="0" /><path
     d="m 130.52,96.055 0,-2.832"
     style="fill:none;stroke:#000000;stroke-width:0.5333333;stroke-linecap:butt;stroke-linejoin:miter;stroke-miterlimit:4;stroke-opacity:1;stroke-dasharray:none"
     id="path5054"
     inkscape:connector-curvature="0" /><path
     d="m 130.52,94.641 1.418,0"
     style="fill:none;stroke:#000000;stroke-width:0.5333333;stroke-linecap:butt;stroke-linejoin:miter;stroke-miterlimit:4;stroke-opacity:1;stroke-dasharray:none"
     id="path5056"
     inkscape:connector-curvature="0" /></g><g
   id="g7866"
   transform="matrix(1.5,0,0,1.5,-107.65513,-286.83677)"
   style="stroke-width:0.5333333;stroke-miterlimit:4;stroke-dasharray:none"><path
     d="m 283.14268,291.69447 2.832,0"
     style="fill:none;stroke:#000000;stroke-width:0.5333333;stroke-linecap:butt;stroke-linejoin:miter;stroke-miterlimit:4;stroke-opacity:1;stroke-dasharray:none"
     id="path4940"
     inkscape:connector-curvature="0" /><path
     d="m 277.34968,286.02347 -2.836,0"
     style="fill:none;stroke:#000000;stroke-width:0.5333333;stroke-linecap:butt;stroke-linejoin:miter;stroke-miterlimit:4;stroke-opacity:1;stroke-dasharray:none"
     id="path4942"
     inkscape:connector-curvature="0" /><path
     d="m 278.70068,287.96447 -5.246,-1.934 5.246,-1.922 c -0.84,1.133 -0.832,2.696 0,3.856 z"
     style="fill:#000000;fill-opacity:1;fill-rule:evenodd;stroke:none"
     id="path4944"
     inkscape:connector-curvature="0" /><path
     d="m 283.14268,295.94447 0,-8.503"
     style="fill:none;stroke:#000000;stroke-width:0.5333333;stroke-linecap:round;stroke-linejoin:miter;stroke-miterlimit:4;stroke-opacity:1;stroke-dasharray:none"
     id="path4946"
     inkscape:connector-curvature="0" /><path
     d="m 280.30668,300.17147 0,-16.98"
     style="fill:none;stroke:#000000;stroke-width:0.5333333;stroke-linecap:round;stroke-linejoin:miter;stroke-miterlimit:4;stroke-opacity:1;stroke-dasharray:none"
     id="path4948"
     inkscape:connector-curvature="0" /><path
     d="m 273.09968,300.19847 0,-2.836 7.086,0"
     style="fill:none;stroke:#000000;stroke-width:0.5333333;stroke-linecap:butt;stroke-linejoin:round;stroke-miterlimit:4;stroke-opacity:1;stroke-dasharray:none"
     id="path4950"
     inkscape:connector-curvature="0" /><path
     d="m 280.18568,286.02347 -7.086,0 0,-2.832"
     style="fill:none;stroke:#000000;stroke-width:0.5333333;stroke-linecap:butt;stroke-linejoin:round;stroke-miterlimit:4;stroke-opacity:1;stroke-dasharray:none"
     id="path4952"
     inkscape:connector-curvature="0" /><path
     d="m 273.09968,304.44847 0,-5.668"
     style="fill:none;stroke:#000000;stroke-width:0.5333333;stroke-linecap:butt;stroke-linejoin:miter;stroke-miterlimit:4;stroke-opacity:1;stroke-dasharray:none"
     id="path5010"
     inkscape:connector-curvature="0" /><path
     d="m 270.26368,304.44847 5.668,0"
     style="fill:none;stroke:#000000;stroke-width:0.5333333;stroke-linecap:butt;stroke-linejoin:miter;stroke-miterlimit:4;stroke-opacity:1;stroke-dasharray:none"
     id="path5012"
     inkscape:connector-curvature="0" /></g><g
   id="g7849"
   transform="matrix(1.5,0,0,1.5,-107.6607,-325.3368)"
   style="stroke-width:0.5333333;stroke-miterlimit:4;stroke-dasharray:none"><path
     d="m 263.05668,239.25747 -2.836,0"
     style="fill:none;stroke:#000000;stroke-width:0.5333333;stroke-linecap:butt;stroke-linejoin:miter;stroke-miterlimit:4;stroke-opacity:1;stroke-dasharray:none"
     id="path4954"
     inkscape:connector-curvature="0" /><path
     d="m 268.84568,233.58947 2.836,0"
     style="fill:none;stroke:#000000;stroke-width:0.5333333;stroke-linecap:butt;stroke-linejoin:miter;stroke-miterlimit:4;stroke-opacity:1;stroke-dasharray:none"
     id="path4956"
     inkscape:connector-curvature="0" /><path
     d="m 267.49368,235.52347 5.246,-1.93 -5.246,-1.926 c 0.84,1.137 0.836,2.691 0,3.856 z"
     style="fill:#000000;fill-opacity:1;fill-rule:evenodd;stroke:none"
     id="path4958"
     inkscape:connector-curvature="0" /><path
     d="m 263.05668,243.50747 0,-8.504"
     style="fill:none;stroke:#000000;stroke-width:0.5333333;stroke-linecap:round;stroke-linejoin:miter;stroke-miterlimit:4;stroke-opacity:1;stroke-dasharray:none"
     id="path4960"
     inkscape:connector-curvature="0" /><path
     d="m 265.88868,247.73047 0,-16.981"
     style="fill:none;stroke:#000000;stroke-width:0.5333333;stroke-linecap:round;stroke-linejoin:miter;stroke-miterlimit:4;stroke-opacity:1;stroke-dasharray:none"
     id="path4962"
     inkscape:connector-curvature="0" /><path
     d="m 273.09968,247.76147 0,-2.836 -7.09,0"
     style="fill:none;stroke:#000000;stroke-width:0.5333333;stroke-linecap:butt;stroke-linejoin:round;stroke-miterlimit:4;stroke-opacity:1;stroke-dasharray:none"
     id="path4964"
     inkscape:connector-curvature="0" /><path
     d="m 266.00968,233.58947 7.09,0 0,-2.836"
     style="fill:none;stroke:#000000;stroke-width:0.5333333;stroke-linecap:butt;stroke-linejoin:round;stroke-miterlimit:4;stroke-opacity:1;stroke-dasharray:none"
     id="path4966"
     inkscape:connector-curvature="0" /><path
     d="m 273.09968,246.34347 7.086,0"
     style="fill:none;stroke:#000000;stroke-width:0.5333333;stroke-linecap:butt;stroke-linejoin:miter;stroke-miterlimit:4;stroke-opacity:1;stroke-dasharray:none"
     id="path4980"
     inkscape:connector-curvature="0" /><path
     d="m 273.09968,230.75347 0,-4.254"
     style="fill:none;stroke:#000000;stroke-width:0.5333333;stroke-linecap:butt;stroke-linejoin:miter;stroke-miterlimit:4;stroke-opacity:1;stroke-dasharray:none"
     id="path4990"
     inkscape:connector-curvature="0" /><path
     d="m 254.67368,239.25747 5.668,0"
     style="fill:none;stroke:#000000;stroke-width:0.5333333;stroke-linecap:butt;stroke-linejoin:miter;stroke-miterlimit:4;stroke-opacity:1;stroke-dasharray:none"
     id="path4992"
     inkscape:connector-curvature="0" /><path
     d="m 268.84568,226.49947 8.504,0"
     style="fill:none;stroke:#000000;stroke-width:0.5333333;stroke-linecap:butt;stroke-linejoin:miter;stroke-miterlimit:4;stroke-opacity:1;stroke-dasharray:none"
     id="path5038"
     inkscape:connector-curvature="0" /><path
     d="m 270.26368,225.08547 5.668,0"
     style="fill:none;stroke:#000000;stroke-width:0.5333333;stroke-linecap:butt;stroke-linejoin:miter;stroke-miterlimit:4;stroke-opacity:1;stroke-dasharray:none"
     id="path5040"
     inkscape:connector-curvature="0" /><path
     d="m 271.68168,223.66747 2.832,0"
     style="fill:none;stroke:#000000;stroke-width:0.5333333;stroke-linecap:butt;stroke-linejoin:miter;stroke-miterlimit:4;stroke-opacity:1;stroke-dasharray:none"
     id="path5042"
     inkscape:connector-curvature="0" /><path
     d="m 253.25568,240.67547 0,-2.836"
     style="fill:none;stroke:#000000;stroke-width:0.5333333;stroke-linecap:butt;stroke-linejoin:miter;stroke-miterlimit:4;stroke-opacity:1;stroke-dasharray:none"
     id="path5058"
     inkscape:connector-curvature="0" /><path
     d="m 253.25568,239.25747 1.418,0"
     style="fill:none;stroke:#000000;stroke-width:0.5333333;stroke-linecap:butt;stroke-linejoin:miter;stroke-miterlimit:4;stroke-opacity:1;stroke-dasharray:none"
     id="path5060"
     inkscape:connector-curvature="0" /></g><g
   id="g5666"
   transform="matrix(1.5,0,0,1.5,211.94629,-39.789393)"
   style="stroke-width:0.5333333;stroke-miterlimit:4;stroke-dasharray:none"><path
     d="m 106.93058,55.936676 -2.832,0"
     style="fill:none;stroke:#000000;stroke-width:0.5333333;stroke-linecap:butt;stroke-linejoin:miter;stroke-miterlimit:4;stroke-opacity:1;stroke-dasharray:none"
     id="path4912"
     inkscape:connector-curvature="0" /><path
     d="m 112.72358,50.268671 2.832,0"
     style="fill:none;stroke:#000000;stroke-width:0.5333333;stroke-linecap:butt;stroke-linejoin:miter;stroke-miterlimit:4;stroke-opacity:1;stroke-dasharray:none"
     id="path4914"
     inkscape:connector-curvature="0" /><path
     d="m 111.37158,52.201675 5.247,-1.925004 -5.247,-1.929994 c 0.84,1.136997 0.833,2.691001 0,3.854998 z"
     style="fill:#000000;fill-opacity:1;fill-rule:evenodd;stroke:none"
     id="path4916"
     inkscape:connector-curvature="0" /><path
     d="m 106.93058,60.190674 0,-8.503996"
     style="fill:none;stroke:#000000;stroke-width:0.5333333;stroke-linecap:round;stroke-linejoin:miter;stroke-miterlimit:4;stroke-opacity:1;stroke-dasharray:none"
     id="path4918"
     inkscape:connector-curvature="0" /><path
     d="m 109.76658,64.409672 0,-16.977002"
     style="fill:none;stroke:#000000;stroke-width:0.5333333;stroke-linecap:round;stroke-linejoin:miter;stroke-miterlimit:4;stroke-opacity:1;stroke-dasharray:none"
     id="path4920"
     inkscape:connector-curvature="0" /><path
     d="m 116.97358,64.440672 0,-2.835994 -7.086,0"
     style="fill:none;stroke:#000000;stroke-width:0.5333333;stroke-linecap:butt;stroke-linejoin:round;stroke-miterlimit:4;stroke-opacity:1;stroke-dasharray:none"
     id="path4922"
     inkscape:connector-curvature="0" /><path
     d="m 109.88758,50.268671 7.086,0 0,-2.836001"
     style="fill:none;stroke:#000000;stroke-width:0.5333333;stroke-linecap:butt;stroke-linejoin:round;stroke-miterlimit:4;stroke-opacity:1;stroke-dasharray:none"
     id="path4924"
     inkscape:connector-curvature="0" /><path
     d="m 116.97358,66.563631 0,-2.122959"
     style="fill:none;stroke:#000000;stroke-width:0.5333333;stroke-linecap:butt;stroke-linejoin:miter;stroke-miterlimit:4;stroke-opacity:1;stroke-dasharray:none"
     id="path4974"
     inkscape:connector-curvature="0"
     sodipodi:nodetypes="cc" /><path
     d="m 99.497237,55.936676 4.722343,0"
     style="fill:none;stroke:#000000;stroke-width:0.5333333;stroke-linecap:butt;stroke-linejoin:miter;stroke-miterlimit:4;stroke-opacity:1;stroke-dasharray:none"
     id="path4982"
     inkscape:connector-curvature="0"
     sodipodi:nodetypes="cc" /><path
     d="m 116.97358,50.268671 0,-6.81023"
     style="fill:none;stroke:#000000;stroke-width:0.5333333;stroke-linecap:butt;stroke-linejoin:miter;stroke-miterlimit:4;stroke-opacity:1;stroke-dasharray:none"
     id="path4988"
     inkscape:connector-curvature="0"
     sodipodi:nodetypes="cc" /><path
     d="m 114.14158,42.145343 5.668,0"
     style="fill:none;stroke:#000000;stroke-width:0.5333333;stroke-linecap:butt;stroke-linejoin:miter;stroke-miterlimit:4;stroke-opacity:1;stroke-dasharray:none"
     id="path5044"
     inkscape:connector-curvature="0" /><path
     d="m 115.55558,40.727343 2.836,0"
     style="fill:none;stroke:#000000;stroke-width:0.5333333;stroke-linecap:butt;stroke-linejoin:miter;stroke-miterlimit:4;stroke-opacity:1;stroke-dasharray:none"
     id="path5046"
     inkscape:connector-curvature="0" /><path
     d="m 112.72358,43.559344 8.504,0"
     style="fill:none;stroke:#000000;stroke-width:0.5333333;stroke-linecap:butt;stroke-linejoin:miter;stroke-miterlimit:4;stroke-opacity:1;stroke-dasharray:none"
     id="path5048"
     inkscape:connector-curvature="0" /></g><path
   inkscape:connector-curvature="0"
   id="path5206"
   style="fill:none;stroke:#000000;stroke-width:0.80000001;stroke-linecap:round;stroke-linejoin:miter;stroke-miterlimit:4;stroke-opacity:1;stroke-dasharray:none"
   d="m 305.6699,83.82303 c 0,1.9215 -1.629,3.48 -3.6435,3.48 -1.97551,0 -3.59251,-1.5 -3.65101,-3.381" /><g
   id="g5598"
   transform="matrix(1.5,0,0,1.5,178.70461,6.4973142)"
   style="stroke-width:0.5333333;stroke-miterlimit:4;stroke-dasharray:none"><path
     d="m 32.799665,51.7 -2.832,0 -1.418,-2.836 -2.836,5.668 -2.836,-5.668 -2.832,5.668 -2.836,-5.668 -2.836,5.668 -1.414,-2.832 -2.836,0"
     style="fill:none;stroke:#000000;stroke-width:0.5333333;stroke-linecap:butt;stroke-linejoin:round;stroke-miterlimit:4;stroke-opacity:1;stroke-dasharray:none"
     id="path5168"
     inkscape:connector-curvature="0" /><path
     d="m 17.504334,34.297 c 0,-3.914 -3.172,-7.086 -7.086001,-7.086 -3.9139996,0 -7.0859996,3.172 -7.0859996,7.086 0,3.914 3.172,7.086 7.0859996,7.086 3.914001,0 7.086001,-3.172 7.086001,-7.086 z"
     style="fill:none;stroke:#000000;stroke-width:0.5333333;stroke-linecap:round;stroke-linejoin:round;stroke-miterlimit:4;stroke-opacity:1;stroke-dasharray:none"
     id="path5180"
     inkscape:connector-curvature="0" /><path
     d="m 6.1643334,31.461 8.5040006,0"
     style="fill:none;stroke:#000000;stroke-width:0.5333333;stroke-linecap:butt;stroke-linejoin:miter;stroke-miterlimit:4;stroke-opacity:1;stroke-dasharray:none"
     id="path5182"
     inkscape:connector-curvature="0" /><path
     d="m 7.5823334,31.461 0,5.672"
     style="fill:none;stroke:#000000;stroke-width:0.5333333;stroke-linecap:butt;stroke-linejoin:miter;stroke-miterlimit:4;stroke-opacity:1;stroke-dasharray:none"
     id="path5184"
     inkscape:connector-curvature="0" /><path
     d="m 6.6133334,35.59 0.965,2.625 0.965,-2.625 c -0.57,0.422 -1.347,0.418 -1.93,0 z"
     style="fill:#000000;fill-opacity:1;fill-rule:evenodd;stroke:none"
     id="path5186"
     inkscape:connector-curvature="0" /><path
     d="m 10.418333,31.461 0,5.672"
     style="fill:none;stroke:#000000;stroke-width:0.5333333;stroke-linecap:butt;stroke-linejoin:miter;stroke-miterlimit:4;stroke-opacity:1;stroke-dasharray:none"
     id="path5188"
     inkscape:connector-curvature="0" /><path
     d="m 9.4493334,35.59 0.9649996,2.625 0.965001,-2.625 c -0.570001,0.422 -1.348001,0.418 -1.9300006,0 z"
     style="fill:#000000;fill-opacity:1;fill-rule:evenodd;stroke:none"
     id="path5190"
     inkscape:connector-curvature="0" /><path
     d="m 13.254334,31.461 0,5.672"
     style="fill:none;stroke:#000000;stroke-width:0.5333333;stroke-linecap:butt;stroke-linejoin:miter;stroke-miterlimit:4;stroke-opacity:1;stroke-dasharray:none"
     id="path5192"
     inkscape:connector-curvature="0" /><path
     d="m 12.285334,35.59 0.965,2.625 0.961,-2.625 c -0.566,0.422 -1.348,0.418 -1.926,0 z"
     style="fill:#000000;fill-opacity:1;fill-rule:evenodd;stroke:none"
     id="path5194"
     inkscape:connector-curvature="0" /><g
     id="g3287"
     transform="translate(2.1333334,0)"><path
       inkscape:connector-curvature="0"
       id="path5196"
       style="fill:none;stroke:#000000;stroke-width:0.5333333;stroke-linecap:butt;stroke-linejoin:miter;stroke-miterlimit:4;stroke-opacity:1;stroke-dasharray:none"
       d="m 8.289,22.758 0,-4.254" /><path
       inkscape:connector-curvature="0"
       id="path5198"
       style="fill:none;stroke:#000000;stroke-width:0.5333333;stroke-linecap:butt;stroke-linejoin:miter;stroke-miterlimit:4;stroke-opacity:1;stroke-dasharray:none"
       d="m 4.035,18.504 8.504,0" /><path
       inkscape:connector-curvature="0"
       id="path5200"
       style="fill:none;stroke:#000000;stroke-width:0.5333333;stroke-linecap:butt;stroke-linejoin:miter;stroke-miterlimit:4;stroke-opacity:1;stroke-dasharray:none"
       d="m 5.453,17.09 5.668,0" /><path
       inkscape:connector-curvature="0"
       id="path5202"
       style="fill:none;stroke:#000000;stroke-width:0.5333333;stroke-linecap:butt;stroke-linejoin:miter;stroke-miterlimit:4;stroke-opacity:1;stroke-dasharray:none"
       d="m 6.871,15.672 2.832,0" /></g><path
     d="m 10.418333,22.446 0,4.644"
     style="fill:none;stroke:#000000;stroke-width:0.5333333;stroke-linecap:butt;stroke-linejoin:miter;stroke-miterlimit:4;stroke-opacity:1;stroke-dasharray:none"
     id="path5208"
     inkscape:connector-curvature="0" /><path
     d="m 10.418333,41.473 0,10.363"
     style="fill:none;stroke:#000000;stroke-width:0.5333333;stroke-linecap:butt;stroke-linejoin:miter;stroke-miterlimit:4;stroke-opacity:1;stroke-dasharray:none"
     id="path5210"
     inkscape:connector-curvature="0" /><path
     d="m 12.55587,51.711 -1.902708,0"
     style="fill:none;stroke:#000000;stroke-width:0.5333333;stroke-linecap:butt;stroke-linejoin:miter;stroke-miterlimit:4;stroke-opacity:1;stroke-dasharray:none"
     id="path5212"
     inkscape:connector-curvature="0"
     sodipodi:nodetypes="cc" /></g><g
   id="g5616"
   transform="matrix(1.5,0,0,1.5,178.23437,6.5028842)"
   style="stroke-width:0.5333333;stroke-miterlimit:4;stroke-dasharray:none"><path
     d="m 79.945,51.7 -24.64,0"
     style="fill:none;stroke:#000000;stroke-width:0.5333333;stroke-linecap:butt;stroke-linejoin:miter;stroke-miterlimit:4;stroke-opacity:1;stroke-dasharray:none"
     id="path5214"
     inkscape:connector-curvature="0" /><path
     d="m 51.941,56.598 0,-9.797"
     style="fill:none;stroke:#000000;stroke-width:0.5333333;stroke-linecap:butt;stroke-linejoin:miter;stroke-miterlimit:4;stroke-opacity:1;stroke-dasharray:none"
     id="path5220"
     inkscape:connector-curvature="0" /><path
     d="m 55.172,56.598 0,-9.797"
     style="fill:none;stroke:#000000;stroke-width:0.5333333;stroke-linecap:butt;stroke-linejoin:miter;stroke-miterlimit:4;stroke-opacity:1;stroke-dasharray:none"
     id="path5222"
     inkscape:connector-curvature="0" /><g
     id="g5224"
     transform="matrix(1,0,0,-1,0,112.848)"
     style="stroke-width:0.5333333;stroke-miterlimit:4;stroke-dasharray:none"><path
       d="m 33.104556,61.152 18.809444,0"
       style="fill:none;stroke:#000000;stroke-width:0.5333333;stroke-linecap:butt;stroke-linejoin:miter;stroke-miterlimit:4;stroke-opacity:1;stroke-dasharray:none"
       id="path5226"
       inkscape:connector-curvature="0"
       sodipodi:nodetypes="cc" /></g><path
     d="m 119.9944,51.557912 -35.201214,0"
     style="fill:none;stroke:#000000;stroke-width:0.5333333;stroke-linecap:butt;stroke-linejoin:miter;stroke-miterlimit:4;stroke-opacity:1;stroke-dasharray:none"
     id="path5214-2"
     inkscape:connector-curvature="0"
     sodipodi:nodetypes="cc" /></g><g
   transform="matrix(0.8,0,0,-0.8,-231.34379,766.93427)"
   id="g5313" />














<path
   style="fill:none;stroke:#000000;stroke-width:0.80000001;stroke-linecap:butt;stroke-linejoin:miter;stroke-miterlimit:4;stroke-opacity:1;stroke-dasharray:none"
   d="m 387.42109,54.658585 0,21.964948"
   id="path17848-8-2-2"
   inkscape:connector-curvature="0"
   sodipodi:nodetypes="cc" />

<path
   style="fill:none;stroke:#000000;stroke-width:0.80000001;stroke-linecap:butt;stroke-linejoin:miter;stroke-miterlimit:4;stroke-opacity:1;stroke-dasharray:none"
   d="m 387.35261,127.20943 -2e-5,26.72761"
   id="path17582-3-5-2-5"
   inkscape:connector-curvature="0"
   sodipodi:nodetypes="cc" /><path
   style="fill:none;stroke:#000000;stroke-width:0.80000001;stroke-linecap:butt;stroke-linejoin:miter;stroke-miterlimit:4;stroke-opacity:1;stroke-dasharray:none"
   d="m 387.32806,93.221686 2e-5,-14.044065"
   id="path17582-3-5-2-8-4"
   inkscape:connector-curvature="0"
   sodipodi:nodetypes="cc" /><path
   style="fill:none;stroke:#000000;stroke-width:0.80000001;stroke-linecap:butt;stroke-linejoin:miter;stroke-miterlimit:4;stroke-opacity:1;stroke-dasharray:none"
   d="m 387.34244,79.615366 0,-3.401592"
   id="path17848-8-2-2-7-2"
   inkscape:connector-curvature="0"
   sodipodi:nodetypes="cc" />

<path
   style="fill:none;stroke:#000000;stroke-width:0.80000001;stroke-linecap:butt;stroke-linejoin:miter;stroke-miterlimit:4;stroke-opacity:1;stroke-dasharray:none"
   d="m 387.44295,169.97261 2e-5,-16.45035"
   id="path17582-3-5-2-8-0"
   inkscape:connector-curvature="0"
   sodipodi:nodetypes="cc" />

<path
   style="fill:none;stroke:#000000;stroke-width:0.80000001;stroke-linecap:butt;stroke-linejoin:miter;stroke-miterlimit:4;stroke-opacity:1;stroke-dasharray:none"
   d="m 318.82081,150.70698 1.04565,2e-5"
   id="path17582-3-5-3"
   inkscape:connector-curvature="0"
   sodipodi:nodetypes="cc" /><path
   style="fill:none;stroke:#000000;stroke-width:0.80000001;stroke-linecap:butt;stroke-linejoin:miter;stroke-miterlimit:4;stroke-opacity:1;stroke-dasharray:none"
   d="m 318.53508,150.707 3.40159,0"
   id="path17848-8-2-6"
   inkscape:connector-curvature="0"
   sodipodi:nodetypes="cc" /><path
   style="fill:none;stroke:#000000;stroke-width:0.80000001;stroke-linecap:butt;stroke-linejoin:miter;stroke-miterlimit:4;stroke-opacity:1;stroke-dasharray:none"
   d="m 301.99159,138.5334 2e-5,-30.77951"
   id="path17582-3-5-2-8-2"
   inkscape:connector-curvature="0"
   sodipodi:nodetypes="cc" /><path
   style="fill:none;stroke:#000000;stroke-width:0.80000001;stroke-linecap:butt;stroke-linejoin:miter;stroke-miterlimit:4;stroke-opacity:1;stroke-dasharray:none"
   d="m 301.99161,108.18445 0,-45.035933"
   id="path17848-8-2-2-7-6"
   inkscape:connector-curvature="0"
   sodipodi:nodetypes="cc" />

<path
   style="fill:none;stroke:#000000;stroke-width:0.80000001;stroke-linecap:butt;stroke-linejoin:miter;stroke-miterlimit:4;stroke-opacity:1;stroke-dasharray:none"
   d="m 304.92876,44.177344 14.9377,2.4e-5"
   id="path17582-3-5-7"
   inkscape:connector-curvature="0"
   sodipodi:nodetypes="cc" /><path
   style="fill:none;stroke:#000000;stroke-width:0.80000001;stroke-linecap:butt;stroke-linejoin:miter;stroke-miterlimit:4;stroke-opacity:1;stroke-dasharray:none"
   d="m 318.53508,44.177368 10.06328,0"
   id="path17848-8-2-1"
   inkscape:connector-curvature="0"
   sodipodi:nodetypes="cc" /><path
   style="fill:none;stroke:#000000;stroke-width:0.80000001;stroke-linecap:butt;stroke-linejoin:miter;stroke-miterlimit:4;stroke-opacity:1;stroke-dasharray:none"
   d="m 301.98411,45.581395 -2e-5,17.821731"
   id="path17582-3-5-2-1"
   inkscape:connector-curvature="0"
   sodipodi:nodetypes="cc" /><path
   style="fill:none;stroke:#000000;stroke-width:0.80000001;stroke-linecap:butt;stroke-linejoin:miter;stroke-miterlimit:4;stroke-opacity:1;stroke-dasharray:none"
   d="m 321.13121,150.53884 142.85404,0"
   id="path17631-0-8-23-2-7-5"
   inkscape:connector-curvature="0"
   sodipodi:nodetypes="cc" /><text
   transform="scale(1,-1)"
   sodipodi:linespacing="125%"
   id="text4153"
   y="-87.726669"
   x="235.46175"
   style="font-size:9.60000038px;font-style:normal;font-weight:normal;line-height:125%;letter-spacing:0px;word-spacing:0px;fill:#0064ff;fill-opacity:1;stroke:none;font-family:Sans"
   xml:space="preserve"><tspan
     y="-87.726669"
     x="235.46175"
     id="tspan4155"
     sodipodi:role="line">IN</tspan></text>


<text
   transform="scale(1,-1)"
   sodipodi:linespacing="125%"
   id="text4157"
   y="-153.95358"
   x="442.20148"
   style="font-size:9.60000038px;font-style:normal;font-weight:normal;line-height:125%;letter-spacing:0px;word-spacing:0px;fill:#0064ff;fill-opacity:1;stroke:none;font-family:Sans"
   xml:space="preserve"><tspan
     y="-153.95358"
     x="442.20148"
     id="tspan4159"
     sodipodi:role="line">OUT</tspan></text>


<path
   sodipodi:type="arc"
   style="fill:#ffffff;fill-opacity:1;stroke:#000000;stroke-width:3.33333325;stroke-linecap:butt;stroke-miterlimit:4;stroke-opacity:1;stroke-dasharray:none;stroke-dashoffset:0"
   id="path17874-9-9-1"
   sodipodi:cx="2274.8032"
   sodipodi:cy="2040.9447"
   sodipodi:rx="7.0866141"
   sodipodi:ry="7.0866141"
   d="m 2267.7461,2040.2987 c 0.3568,-3.8975 3.8056,-6.7679 7.7031,-6.4111 3.8975,0.3567 6.7679,3.8055 6.4111,7.7031 -0.3567,3.8975 -3.8055,6.7679 -7.703,6.4111 -3.8777,-0.3549 -6.7427,-3.7721 -6.4157,-7.6522"
   transform="matrix(0.24,0,0,-0.24,-298.63999,573.86931)"
   sodipodi:start="3.2328723"
   sodipodi:end="9.5088549"
   sodipodi:open="true" /><path
   sodipodi:type="arc"
   style="fill:#ffffff;fill-opacity:1;stroke:#000000;stroke-width:3.33333325;stroke-linecap:butt;stroke-miterlimit:4;stroke-opacity:1;stroke-dasharray:none;stroke-dashoffset:0"
   id="path17874-9-9-7"
   sodipodi:cx="2274.8032"
   sodipodi:cy="2040.9447"
   sodipodi:rx="7.0866141"
   sodipodi:ry="7.0866141"
   d="m 2267.7461,2040.2987 c 0.3568,-3.8975 3.8056,-6.7679 7.7031,-6.4111 3.8975,0.3567 6.7679,3.8055 6.4111,7.7031 -0.3567,3.8975 -3.8055,6.7679 -7.703,6.4111 -3.8777,-0.3549 -6.7427,-3.7721 -6.4157,-7.6522"
   transform="matrix(0.24,0,0,-0.24,-107.03254,640.31369)"
   sodipodi:start="3.2328723"
   sodipodi:end="9.5088549"
   sodipodi:open="true" /><path
   sodipodi:nodetypes="cc"
   inkscape:connector-curvature="0"
   id="path17631-0-8-23-2-7-1"
   d="m 356.2482,44.151516 5.90952,0"
   style="fill:none;stroke:#000000;stroke-width:0.80000001;stroke-linecap:butt;stroke-linejoin:miter;stroke-miterlimit:4;stroke-opacity:1;stroke-dasharray:none" /><path
   inkscape:connector-curvature="0"
   id="path4968-6"
   style="fill:none;stroke:#000000;stroke-width:0.80000001;stroke-linecap:butt;stroke-linejoin:round;stroke-miterlimit:4;stroke-opacity:1;stroke-dasharray:none"
   d="m 359.04403,44.152097 -4.248,0 -2.127,4.254 -4.254,-8.508 -4.2525,8.508 -4.248,-8.508 -4.254,8.508 -4.254,-8.508 -2.121,4.254 -4.254,0" /><path
   inkscape:connector-curvature="0"
   id="path4970-4"
   style="fill:none;stroke:#000000;stroke-width:0.80000001;stroke-linecap:butt;stroke-linejoin:round;stroke-miterlimit:4;stroke-opacity:1;stroke-dasharray:none"
   d="m 340.31224,199.11009 0,-4.248 4.254,-2.127 -8.502,-4.254 8.502,-4.254 -8.502,-4.24802 8.502,-4.254 -8.502,-4.254 4.248,-2.121 0,-4.254" /><path
   inkscape:connector-curvature="0"
   id="path4984-5"
   style="fill:none;stroke:#000000;stroke-width:0.80000001;stroke-linecap:butt;stroke-linejoin:miter;stroke-miterlimit:4;stroke-opacity:1;stroke-dasharray:none"
   d="m 340.31224,205.48509 0,-6.375" /><path
   inkscape:connector-curvature="0"
   id="path5036-3"
   style="fill:none;stroke:#000000;stroke-width:0.80000001;stroke-linecap:butt;stroke-linejoin:miter;stroke-miterlimit:4;stroke-opacity:1;stroke-dasharray:none"
   d="m 336.06424,205.48509 8.502,0" /><path
   inkscape:connector-curvature="0"
   id="path5166-0"
   style="fill:none;stroke:#000000;stroke-width:0.80000001;stroke-linecap:butt;stroke-linejoin:miter;stroke-miterlimit:4;stroke-opacity:1;stroke-dasharray:none"
   d="m 340.29574,165.43135 0,-14.877"
   sodipodi:nodetypes="cc" /><path
   inkscape:connector-curvature="0"
   id="path4970-4-7"
   style="fill:none;stroke:#000000;stroke-width:0.80000001;stroke-linecap:butt;stroke-linejoin:round;stroke-miterlimit:4;stroke-opacity:1;stroke-dasharray:none"
   d="m 463.63543,135.0877 0,-4.248 4.254,-2.127 -8.502,-4.254 8.502,-4.254 -8.502,-4.24802 8.502,-4.254 -8.502,-4.254 4.248,-2.121 0,-4.254" /><g
   transform="matrix(1.5,0,0,1.5,451.20793,68.460733)"
   style="stroke-width:0.5333333;stroke-miterlimit:4;stroke-dasharray:none"
   id="g3287-0"><path
     inkscape:connector-curvature="0"
     id="path5196-9"
     style="fill:none;stroke:#000000;stroke-width:0.5333333;stroke-linecap:butt;stroke-linejoin:miter;stroke-miterlimit:4;stroke-opacity:1;stroke-dasharray:none"
     d="m 8.289,22.758 0,-4.254" /><path
     inkscape:connector-curvature="0"
     id="path5198-4"
     style="fill:none;stroke:#000000;stroke-width:0.5333333;stroke-linecap:butt;stroke-linejoin:miter;stroke-miterlimit:4;stroke-opacity:1;stroke-dasharray:none"
     d="m 4.035,18.504 8.504,0" /><path
     inkscape:connector-curvature="0"
     id="path5200-8"
     style="fill:none;stroke:#000000;stroke-width:0.5333333;stroke-linecap:butt;stroke-linejoin:miter;stroke-miterlimit:4;stroke-opacity:1;stroke-dasharray:none"
     d="m 5.453,17.09 5.668,0" /><path
     inkscape:connector-curvature="0"
     id="path5202-8"
     style="fill:none;stroke:#000000;stroke-width:0.5333333;stroke-linecap:butt;stroke-linejoin:miter;stroke-miterlimit:4;stroke-opacity:1;stroke-dasharray:none"
     d="m 6.871,15.672 2.832,0" /></g><path
   d="m 358.0572,44.532517 0,39.02288"
   style="fill:none;stroke:#000000;stroke-width:0.79999995;stroke-linecap:butt;stroke-linejoin:miter;stroke-miterlimit:4;stroke-opacity:1;stroke-dasharray:none"
   id="path5210-4"
   inkscape:connector-curvature="0"
   sodipodi:nodetypes="cc" /><rect
   style="fill:none;stroke:#0064ff;stroke-width:0.80000001;stroke-linecap:round;stroke-miterlimit:4;stroke-opacity:1;stroke-dasharray:none;stroke-dashoffset:0"
   id="rect3366"
   width="191.63786"
   height="236.67506"
   x="247.24501"
   y="-229.78162"
   transform="scale(1,-1)"
   ry="0" /><path
   d="m 463.64926,135.00597 0,15.5445"
   style="fill:none;stroke:#000000;stroke-width:0.79999995;stroke-linecap:butt;stroke-linejoin:miter;stroke-miterlimit:4;stroke-opacity:1;stroke-dasharray:none"
   id="path5210-5"
   inkscape:connector-curvature="0" />





</g><g
     inkscape:groupmode="layer"
     id="layer2"
     inkscape:label="DistortionSources"
     transform="translate(-229.12295,146.67437)" /><g
     inkscape:groupmode="layer"
     id="layer1"
     inkscape:label="Base"
     transform="translate(-229.12295,146.67437)" /></svg>